Getting Started with Benvos
…
And that’s it! That’s all it takes to create a benvo, which is very particular kind of wrapper function for handling this specific kind of relational data in which there is a one-to-many relationship between the subject data frame and each BEF data frame.

Benvo Methods

While the summary method above gives us a look at the overall benvo object, if we simply print the benvo, we’ll get a view of whatever data frame is active.

bdf
#> Active df:  subject
#> # A tibble: 1,000 x 3
#>       id   BMI   sex
#>    <int> <dbl> <int>
#>  1     1  28.9     1
#>  2     2  33.0     1
#>  3     3  46.9     0
#>  4     4  30.2     1
#>  5     5  43.3     0
#>  6     6  34.1     1
#>  7     7  35.2     1
#>  8     8  28.3     0
#>  9     9  43.2     0
#> 10    10  44.4     1
#> # … with 990 more rows

This notion of an active dataframe is inspired by (or borrowed from, depending on your perspective), the set-up of the tidygraph package which also has a particular kind of relational data structure.

Essentially, the active dataframe is that dataframe which is currently available for viewing and editing via the popular dplyr verbs.

bdf %>% activate(FFR) %>% filter(id<=5)
#> Active df:  FFR
#> # A tibble: 37 x 2
#>       id Distance
#>    <int>    <dbl>
#>  1     1    0.773
#>  2     1    0.734
#>  3     1    0.997
#>  4     1    0.470
#>  5     1    0.523
#>  6     2    0.369
#>  7     2    0.533
#>  8     2    0.779
#>  9     2    0.723
#> 10     2    0.375
#> # … with 27 more rows
…
Other packages

While the above descriptive statistics are nice, the real power of using benvos is that they offer functions like joinvo to easily join the subject and bef data frames, which can be useful in setting up the data for models in other packages. Below we’ll use the joinvo function, passing the benvo and bef character label for which table we want joined.

joinvo(bdf,"FFR")
#> # A tibble: 9,550 x 2
#>       id Distance
#>    <int>    <dbl>
#>  1     1    0.773
#>  2     1    0.734
#>  3     1    0.997
#>  4     1    0.470
#>  5     1    0.523
#>  6     2    0.369
#>  7     2    0.533
#>  8     2    0.779
#>  9     2    0.723
#> 10     2    0.375
#> # … with 9,540 more rows
…
Longitudinal Example

For our longitudinal example we’ll look at a dataset that imagines a hypothetical set of grocery or “Healthy Food Stores”(HFS) near subjects. Subjects or grocery stores may move over time so this will be reflected in our data. Below we’ll repeat the similar descriptives from above, highlighting the differences in a longitudinal benvo.

data("longitudinal_HFS")
longitudinal_HFS
#> Active df:  subject
#> # A tibble: 596 x 6
#>       id   sex subj_effect measurement exposure   BMI
#>    <int> <int>       <dbl>       <int>    <dbl> <dbl>
#>  1     1     0      0.0974           1    -4.27  28.1
#>  2     1     0      0.0974           2    -3.30  29.4
#>  3     1     0      0.0974           3    -5.72  29.7
#>  4     1     0      0.0974           4    -2.45  30.6
#>  5     2     1     -0.202            1    -3.15  28.0
#>  6     2     1     -0.202            2    -6.20  24.5
#>  7     3     1      0.0641           1    -2.77  28.2
#>  8     4     1     -0.0627           1    -2.61  27.4
#>  9     4     1     -0.0627           2    -3.19  26.9
#> 10     5     0      0.0980           1    -4.52  30.1
#> # … with 586 more rows
…
